<?xml version="1.0" encoding="UTF-8" standalone="no"?>
<!-- Created with Inkscape (http://www.inkscape.org/) -->
<svg id="svg3213" xmlns:rdf="http://www.w3.org/1999/02/22-rdf-syntax-ns#" xmlns="http://www.w3.org/2000/svg" height="24" width="24" version="1.0" xmlns:cc="http://creativecommons.org/ns#" xmlns:dc="http://purl.org/dc/elements/1.1/">
 <metadata id="metadata12">
  <rdf:RDF>
   <cc:Work rdf:about="">
    <dc:format>image/svg+xml</dc:format>
    <dc:type rdf:resource="http://purl.org/dc/dcmitype/StillImage"/>
    <dc:title/>
   </cc:Work>
  </rdf:RDF>
 </metadata>
 <g id="layer1" transform="translate(-1 -.00025397)">
  <g id="g3790" style="opacity:.3;stroke:#fff" transform="translate(0 1.0003)">
   <path id="path3367-2" style="stroke-linejoin:round;stroke:#fff;stroke-linecap:round;stroke-width:1.4115;fill:none" d="m11.789 19.294 3.505-3.74-6.5883-6.6311m-1e-7 6.0661 6.5885-6.6311-3.5516-3.6521"/>
   <path id="path3590-1" style="stroke:#fff;stroke-width:1px;stroke-linecap:round;fill:none" d="m11.507 4.8749 0.08824 14.156"/>
  </g>
  <path id="path3367" style="stroke-linejoin:round;stroke:#3c3c3c;stroke-linecap:round;stroke-width:1.4115;fill:none" d="m11.789 19.294 3.505-3.74-6.5883-6.6311m-1e-7 6.0661 6.5885-6.6311-3.5516-3.6521"/>
  <path id="path3590" style="stroke:#3c3c3c;stroke-width:1px;stroke-linecap:round;fill:none" d="m11.507 4.8749 0.08824 14.156"/>
 </g>
</svg>
