<?xml version="1.0" encoding="UTF-8" standalone="no"?>
<!-- Created with Inkscape (http://www.inkscape.org/) -->
<svg id="svg3767" xmlns:rdf="http://www.w3.org/1999/02/22-rdf-syntax-ns#" xmlns="http://www.w3.org/2000/svg" height="64" width="64" version="1.1" xmlns:cc="http://creativecommons.org/ns#" xmlns:dc="http://purl.org/dc/elements/1.1/">
 <metadata id="metadata3772">
  <rdf:RDF>
   <cc:Work rdf:about="">
    <dc:format>image/svg+xml</dc:format>
    <dc:type rdf:resource="http://purl.org/dc/dcmitype/StillImage"/>
    <dc:title/>
   </cc:Work>
  </rdf:RDF>
 </metadata>
 <g id="layer1" transform="translate(0 -988.36)">
  <text id="text4299" style="font-size:20px;letter-spacing:0px;line-height:125%;word-spacing:0px;font-family:Cantarell;fill:#000000" xml:space="preserve" transform="translate(0 988.36)" y="32.685272" x="28.284271"><tspan id="tspan4301" x="28.284271" y="32.685272"/></text>
  <text id="text4303" style="font-size:20px;letter-spacing:0px;line-height:125%;word-spacing:0px;font-family:Cantarell;fill:#2e3436" xml:space="preserve" y="1046.5712" x="10.326172"><tspan id="tspan4305" x="10.326172" style="font-size:72px;font-family:Monospace;font-weight:bold;fill:#ffffff" y="1046.5712">8</tspan></text>
 </g>
</svg>
