<?xml version="1.0" encoding="UTF-8" standalone="no"?>
<!-- Created with Inkscape (http://www.inkscape.org/) -->
<svg id="svg2716" xmlns="http://www.w3.org/2000/svg" height="48" width="48" version="1.0" xmlns:xlink="http://www.w3.org/1999/xlink">
 <defs id="defs2718">
  <linearGradient id="linearGradient3676" y2="28.516" gradientUnits="userSpaceOnUse" x2="36.968" y1="1.9418" x1="11.301">
   <stop id="stop3672" style="stop-color:#fff" offset="0"/>
   <stop id="stop3674" style="stop-color:#fff;stop-opacity:0" offset="1"/>
  </linearGradient>
  <linearGradient id="linearGradient3684" y2="3.9276" gradientUnits="userSpaceOnUse" x2="13.528" y1="26.723" x1="35.926">
   <stop id="stop3680" style="stop-color:#fff" offset="0"/>
   <stop id="stop3682" style="stop-color:#fff;stop-opacity:0" offset="1"/>
  </linearGradient>
  <linearGradient id="linearGradient2858" y2="28.467" gradientUnits="userSpaceOnUse" x2="11.021" gradientTransform="matrix(1 .0019160 .0019160 -1 -.0075701 39.19)" y1="1.9923" x1="37.653">
   <stop id="stop248-9" style="stop-color:#9b9b9b" offset="0"/>
   <stop id="stop250-1" style="stop-color:#ececec" offset="1"/>
  </linearGradient>
  <linearGradient id="linearGradient3365" y2="15.183" gradientUnits="userSpaceOnUse" x2="12.151" gradientTransform="matrix(.11489 0 0 .98252 33.607 9.6301)" y1="15.233" x1="38.307">
   <stop id="stop274" style="stop-color:#ff6363" offset="0"/>
   <stop id="stop276" style="stop-color:#c00" offset="1"/>
  </linearGradient>
  <linearGradient id="linearGradient3369" y2="24.195" gradientUnits="userSpaceOnUse" x2="7.1762" gradientTransform="matrix(2.609 -.0019020 .0049986 .99273 -11.843 8.9344)" y1="6.0681" x1="9.9024">
   <stop id="stop265" style="stop-color:#ff6363" offset="0"/>
   <stop id="stop267" style="stop-color:#c00" offset="1"/>
  </linearGradient>
 </defs>
 <g id="g3344">
  <g id="Layer_2" transform="matrix(1 .0019160 .0019160 -1 -.0075741 39.19)">
   <g id="g238" style="opacity:.3">
    <g id="g240">
     <path id="path242" d="m38.274 4.975h-31.423c-0.541 0-0.979 0.438-0.979 0.979v18.733c0 0.54 0.439 0.979 0.979 0.979h31.424c0.54 0 0.979-0.439 0.979-0.979v-18.733c0-0.541-0.44-0.979-0.98-0.979zm-1.018 18.692h-29.386v-16.694h29.386v16.694zm7.833-15.237v-4.473c0-2.183-1.777-3.957-3.959-3.957h-37.173c-2.183 0-3.957 1.774-3.957 3.957v22.538c0 2.183 1.774 3.957 3.957 3.957h37.173c2.183 0 3.959-1.774 3.959-3.957v-4.519c1.609-0.039 2.909-1.357 2.909-2.977v-7.591c0-1.618-1.3-2.939-2.909-2.978zm0.91 10.569c0 0.541-0.438 0.979-0.979 0.979h-1.93v6.518c0 1.082-0.877 1.958-1.959 1.958h-37.173c-1.082 0-1.958-0.876-1.958-1.958v-22.538c0-1.082 0.877-1.959 1.958-1.959h37.173c1.082 0 1.959 0.877 1.959 1.959v6.471h1.93c0.541 0 0.979 0.438 0.979 0.979v7.591z"/>
    </g>
   </g>
  </g>
  <path id="path252" style="fill:url(#linearGradient2858)" d="m45.051 19.299-1.93-0.0037 0.01249-6.518c0.0021-1.082-0.87325-1.9597-1.9552-1.9617l-37.173-0.07c-1.082-0.0021-1.9597 0.87225-1.9617 1.9542l-0.04318 22.537c-0.0021 1.082 0.87324 1.9607 1.9542 1.9627l37.173 0.07122c1.082 0.0021 1.9607-0.87324 1.9628-1.9552l0.0124-6.471 1.93 0.0037c0.541 0.001 0.97984-0.43612 0.98087-0.97712l0.01454-7.59c0.001-0.542-0.43612-0.97984-0.97712-0.98087zm-5.7929 14.012c-0.001 0.541-0.44088 0.97816-0.98087 0.97712l-31.424-0.06021c-0.541-0.001-0.97816-0.43988-0.97712-0.98087l0.03589-18.733c0.001-0.54 0.44088-0.97816 0.98087-0.97712l31.424 0.06021c0.54 0.001 0.97816 0.44088 0.97712 0.98087l-0.03589 18.733z"/>
  <g id="g255" style="opacity:.4" transform="matrix(1 -.0019160 .0019160 1 -.0075741 8.8244)">
   <g id="g257">
    <path id="path259" style="fill:url(#linearGradient3684)" d="m38.274 3.975h-31.424c-1.091 0-1.979 0.887-1.979 1.978v18.735c0 1.091 0.889 1.979 1.979 1.979h31.424c1.091 0 1.979-0.889 1.979-1.979v-18.735c0.001-1.091-0.888-1.978-1.979-1.978zm0.98 20.712c0 0.54-0.439 0.979-0.979 0.979h-31.424c-0.541 0-0.979-0.439-0.979-0.979v-18.733c0-0.541 0.439-0.979 0.979-0.979h31.424c0.54 0 0.979 0.438 0.979 0.979v18.733z"/>
   </g>
  </g>
  <g id="g255-7" style="opacity:.4" transform="matrix(1 -.0019160 .0019160 1 -.0075741 8.8244)">
   <g id="g257-6">
    <path id="path259-8" style="fill:url(#linearGradient3676)" d="m45.02 10.429h-1.93v-6.471c0-1.082-0.877-1.959-1.959-1.959h-37.173c-1.082 0-1.958 0.877-1.958 1.959v22.537c0 1.082 0.877 1.958 1.958 1.958h37.173c1.082 0 1.959-0.876 1.959-1.958v-6.518h1.93c0.541 0 0.979-0.438 0.979-0.979v-7.59c0-0.541-0.438-0.979-0.979-0.979zm-0.021 8.57-1.909-0.021c-0.553 0-1 0.447-1 1v6.517c0 0.527-0.432 0.959-0.959 0.959h-37.174c-0.528 0-0.957-0.432-0.957-0.959v-22.537c0-0.527 0.429-0.958 0.957-0.958h37.174c0.527 0 0.959 0.431 0.959 0.959v6.471c0 0.553 0.447 1 1 1h1.931l-0.022 7.569z"/>
   </g>
  </g>
 </g>
 <path id="path2700" style="fill:url(#linearGradient3369)" d="m7 14.949 7.0217-0.0095-0.004 18h-7.0128l-0.00494-17.991z"/>
 <polygon id="polygon2702" style="opacity:.25;fill:#fff" points="7.211 6.042 7.211 24.375 8.211 24.375 8.211 7.016 8.211 7.016 12.205 7.016 12.205 7.016 12.205 6.042" transform="matrix(.99343 -.0018768 .0019034 .97955 -.15336 9.0824)"/>
 <rect id="rect2710" style="opacity:.3;fill:url(#linearGradient3365)" transform="matrix(1 -.0020515 .0017894 1 0 0)" height="18.012" width="23.968" y="15.017" x="13.995"/>
 <rect id="rect2712" style="opacity:.25;fill:#fff" transform="matrix(0 1 1 2.9793e-8 0 0)" height="2.0546" width="1" y="11.995" x="14.94"/>
</svg>
